%YAML 1.1
%TAG !u! tag:unity3d.com,2011:
--- !u!1045 &1
EditorBuildSettings:
  m_ObjectHideFlags: 0
  serializedVersion: 2
  m_Scenes:
  - enabled: 1
    path: Assets/Scenes/Menu.unity
    guid: 896b16846aa456746979a5b6be35eae6
  - enabled: 1
    path: Assets/Scenes/Intro.unity
    guid: 4c3afd4a348bc7846aecc99b1f6bef9c
  - enabled: 1
    path: Assets/Scenes/Level1.unity
    guid: 8fdee8b08806afa4eb57e50d6608bd65
  - enabled: 1
    path: Assets/Scenes/Level2.unity
    guid: 6e3eb3fc731bf004eafd238c0d979840
  - enabled: 1
    path: Assets/Scenes/Level3.unity
    guid: ac27a389c4ab12140be66636ca5c2e89
  - enabled: 1
    path: Assets/Scenes/Level4.unity
    guid: 29ba23529a4a8364eb75d4426d9eb03f
  - enabled: 1
    path: Assets/Scenes/Level5.unity
    guid: 6f33497bbec85ac4ea5a688fbfbd60ee
  - enabled: 1
    path: Assets/Scenes/Level6.unity
    guid: 2319e523f535d34449cd2e2f387c2af2
  - enabled: 1
    path: Assets/Scenes/Level7.unity
    guid: d24c124ba08233c439c4487e53d35e98
  m_configObjects: {}
