%YAML 1.1
%TAG !u! tag:unity3d.com,2011:
--- !u!78 &1
TagManager:
  serializedVersion: 2
  tags:
  - Obstacle
  - PlayerFists
  - EnemyFists
  - Grabs
  - ColEnemy1
  - ColEnemy2
  - ColEnemy3
  - forCrashes
  - FxTemporaire
  - PlayerColforhit
  - Throwing
  - DontClip
  - Ground
  - PlayerFixCoords
  - BulletForPlayer
  - Cannon
  - BossFists
  - Luster
  layers:
  - Default
  - TransparentFX
  - Ignore Raycast
  - 
  - Water
  - UI
  - 
  - 
  - PostProcessing
  - PlayerColBones
  - EnemyColBones
  - Walls
  - house
  - Enemy
  - CastleInterior
  - 
  - 
  - 
  - 
  - 
  - 
  - 
  - 
  - 
  - 
  - 
  - 
  - 
  - 
  - 
  - 
  - 
  m_SortingLayers:
  - name: Default
    uniqueID: 0
    locked: 0
