%YAML 1.1
%TAG !u! tag:unity3d.com,2011:
--- !u!54 &1745263370
Rigidbody:
  m_ObjectHideFlags: 0
  m_CorrespondingSourceObject: {fileID: 0}
  m_PrefabInstance: {fileID: 0}
  m_PrefabAsset: {fileID: 0}
  m_GameObject: {fileID: 7275276403585507501}
  serializedVersion: 2
  m_Mass: 1
  m_Drag: 0
  m_AngularDrag: 0.05
  m_UseGravity: 1
  m_IsKinematic: 0
  m_Interpolate: 0
  m_Constraints: 0
  m_CollisionDetection: 0
--- !u!64 &1745263371
MeshCollider:
  m_ObjectHideFlags: 0
  m_CorrespondingSourceObject: {fileID: 0}
  m_PrefabInstance: {fileID: 0}
  m_PrefabAsset: {fileID: 0}
  m_GameObject: {fileID: 7275276403585507501}
  m_Material: {fileID: 0}
  m_IsTrigger: 0
  m_Enabled: 1
  serializedVersion: 3
  m_Convex: 1
  m_CookingOptions: 14
  m_Mesh: {fileID: -773595138661535808, guid: ad5982d06e598e54abcdc42d12854894, type: 3}
--- !u!65 &1745263375
BoxCollider:
  m_ObjectHideFlags: 0
  m_CorrespondingSourceObject: {fileID: 0}
  m_PrefabInstance: {fileID: 0}
  m_PrefabAsset: {fileID: 0}
  m_GameObject: {fileID: 7275276403585507501}
  m_Material: {fileID: 0}
  m_IsTrigger: 1
  m_Enabled: 1
  serializedVersion: 2
  m_Size: {x: 63.66, y: 52.2, z: 75.1}
  m_Center: {x: -1.4210855e-14, y: -0.00000047683713, z: 24.819523}
--- !u!114 &1745263369
MonoBehaviour:
  m_ObjectHideFlags: 0
  m_CorrespondingSourceObject: {fileID: 0}
  m_PrefabInstance: {fileID: 0}
  m_PrefabAsset: {fileID: 0}
  m_GameObject: {fileID: 7275276403585507501}
  m_Enabled: 1
  m_EditorHideFlags: 0
  m_Script: {fileID: 11500000, guid: a5f5244d0a96cfe4182f5bd716991e7e, type: 3}
  m_Name: 
  m_EditorClassIdentifier: 
  leftHand: {fileID: 0}
  rightHand: {fileID: 0}
  playerController: {fileID: 0}
  Grabbed: {fileID: 0}
  Player: {fileID: 0}
  Thrower: {fileID: 0}
  Aim: {fileID: 0}
--- !u!1001 &1717864054962370980
PrefabInstance:
  m_ObjectHideFlags: 0
  serializedVersion: 2
  m_Modification:
    m_TransformParent: {fileID: 0}
    m_Modifications:
    - target: {fileID: -927199367670048503, guid: ad5982d06e598e54abcdc42d12854894,
        type: 3}
      propertyPath: m_Name
      value: canister
      objectReference: {fileID: 0}
    - target: {fileID: -4216859302048453862, guid: ad5982d06e598e54abcdc42d12854894,
        type: 3}
      propertyPath: m_LocalPosition.x
      value: -34.16
      objectReference: {fileID: 0}
    - target: {fileID: -4216859302048453862, guid: ad5982d06e598e54abcdc42d12854894,
        type: 3}
      propertyPath: m_LocalPosition.y
      value: 0
      objectReference: {fileID: 0}
    - target: {fileID: -4216859302048453862, guid: ad5982d06e598e54abcdc42d12854894,
        type: 3}
      propertyPath: m_LocalPosition.z
      value: -6.368
      objectReference: {fileID: 0}
    - target: {fileID: -4216859302048453862, guid: ad5982d06e598e54abcdc42d12854894,
        type: 3}
      propertyPath: m_LocalRotation.x
      value: -0.68530416
      objectReference: {fileID: 0}
    - target: {fileID: -4216859302048453862, guid: ad5982d06e598e54abcdc42d12854894,
        type: 3}
      propertyPath: m_LocalRotation.y
      value: -0.17423601
      objectReference: {fileID: 0}
    - target: {fileID: -4216859302048453862, guid: ad5982d06e598e54abcdc42d12854894,
        type: 3}
      propertyPath: m_LocalRotation.z
      value: -0.17423601
      objectReference: {fileID: 0}
    - target: {fileID: -4216859302048453862, guid: ad5982d06e598e54abcdc42d12854894,
        type: 3}
      propertyPath: m_LocalRotation.w
      value: 0.68530416
      objectReference: {fileID: 0}
    - target: {fileID: -4216859302048453862, guid: ad5982d06e598e54abcdc42d12854894,
        type: 3}
      propertyPath: m_RootOrder
      value: 0
      objectReference: {fileID: 0}
    - target: {fileID: -4216859302048453862, guid: ad5982d06e598e54abcdc42d12854894,
        type: 3}
      propertyPath: m_LocalEulerAnglesHint.x
      value: -90.00001
      objectReference: {fileID: 0}
    - target: {fileID: -4216859302048453862, guid: ad5982d06e598e54abcdc42d12854894,
        type: 3}
      propertyPath: m_LocalEulerAnglesHint.y
      value: -28.53
      objectReference: {fileID: 0}
    - target: {fileID: -4216859302048453862, guid: ad5982d06e598e54abcdc42d12854894,
        type: 3}
      propertyPath: m_LocalEulerAnglesHint.z
      value: 0
      objectReference: {fileID: 0}
    - target: {fileID: -4216859302048453862, guid: ad5982d06e598e54abcdc42d12854894,
        type: 3}
      propertyPath: m_LocalScale.y
      value: 0.025400015
      objectReference: {fileID: 0}
    - target: {fileID: -4216859302048453862, guid: ad5982d06e598e54abcdc42d12854894,
        type: 3}
      propertyPath: m_LocalScale.z
      value: 0.025400015
      objectReference: {fileID: 0}
    - target: {fileID: -1504981713932161579, guid: ad5982d06e598e54abcdc42d12854894,
        type: 3}
      propertyPath: m_Materials.Array.data[0]
      value: 
      objectReference: {fileID: 2100000, guid: f438e660b74f839458757a5722e58c6c, type: 2}
    m_RemovedComponents: []
  m_SourcePrefab: {fileID: 100100000, guid: ad5982d06e598e54abcdc42d12854894, type: 3}
--- !u!1 &7275276403585507501 stripped
GameObject:
  m_CorrespondingSourceObject: {fileID: -927199367670048503, guid: ad5982d06e598e54abcdc42d12854894,
    type: 3}
  m_PrefabInstance: {fileID: 1717864054962370980}
  m_PrefabAsset: {fileID: 0}
