%YAML 1.1
%TAG !u! tag:unity3d.com,2011:
--- !u!1001 &6431007135157145604
PrefabInstance:
  m_ObjectHideFlags: 0
  serializedVersion: 2
  m_Modification:
    m_TransformParent: {fileID: 0}
    m_Modifications:
    - target: {fileID: 100000, guid: 0c03522aba250d64c9197634c161bc03, type: 3}
      propertyPath: m_Name
      value: head (1)
      objectReference: {fileID: 0}
    - target: {fileID: 400000, guid: 0c03522aba250d64c9197634c161bc03, type: 3}
      propertyPath: m_LocalPosition.x
      value: 0
      objectReference: {fileID: 0}
    - target: {fileID: 400000, guid: 0c03522aba250d64c9197634c161bc03, type: 3}
      propertyPath: m_LocalPosition.y
      value: 0.060170546
      objectReference: {fileID: 0}
    - target: {fileID: 400000, guid: 0c03522aba250d64c9197634c161bc03, type: 3}
      propertyPath: m_LocalPosition.z
      value: 0.015401177
      objectReference: {fileID: 0}
    - target: {fileID: 400000, guid: 0c03522aba250d64c9197634c161bc03, type: 3}
      propertyPath: m_LocalRotation.x
      value: -0.7071068
      objectReference: {fileID: 0}
    - target: {fileID: 400000, guid: 0c03522aba250d64c9197634c161bc03, type: 3}
      propertyPath: m_LocalRotation.y
      value: 2.4290571e-11
      objectReference: {fileID: 0}
    - target: {fileID: 400000, guid: 0c03522aba250d64c9197634c161bc03, type: 3}
      propertyPath: m_LocalRotation.z
      value: 1.5618981e-12
      objectReference: {fileID: 0}
    - target: {fileID: 400000, guid: 0c03522aba250d64c9197634c161bc03, type: 3}
      propertyPath: m_LocalRotation.w
      value: 0.7071068
      objectReference: {fileID: 0}
    - target: {fileID: 400000, guid: 0c03522aba250d64c9197634c161bc03, type: 3}
      propertyPath: m_RootOrder
      value: 0
      objectReference: {fileID: 0}
    - target: {fileID: 400000, guid: 0c03522aba250d64c9197634c161bc03, type: 3}
      propertyPath: m_LocalScale.x
      value: 0.00979718
      objectReference: {fileID: 0}
    - target: {fileID: 400000, guid: 0c03522aba250d64c9197634c161bc03, type: 3}
      propertyPath: m_LocalScale.y
      value: 0.009797185
      objectReference: {fileID: 0}
    - target: {fileID: 400000, guid: 0c03522aba250d64c9197634c161bc03, type: 3}
      propertyPath: m_LocalScale.z
      value: 0.009797185
      objectReference: {fileID: 0}
    - target: {fileID: 400000, guid: 0c03522aba250d64c9197634c161bc03, type: 3}
      propertyPath: m_LocalEulerAnglesHint.x
      value: 0
      objectReference: {fileID: 0}
    - target: {fileID: 400000, guid: 0c03522aba250d64c9197634c161bc03, type: 3}
      propertyPath: m_LocalEulerAnglesHint.y
      value: 0
      objectReference: {fileID: 0}
    - target: {fileID: 400000, guid: 0c03522aba250d64c9197634c161bc03, type: 3}
      propertyPath: m_LocalEulerAnglesHint.z
      value: 0
      objectReference: {fileID: 0}
    - target: {fileID: 2300000, guid: 0c03522aba250d64c9197634c161bc03, type: 3}
      propertyPath: m_Materials.Array.data[0]
      value: 
      objectReference: {fileID: 2100000, guid: 8e1c6388b5ff93845a5aea27d2252f52, type: 2}
    m_RemovedComponents: []
  m_SourcePrefab: {fileID: 100100000, guid: 0c03522aba250d64c9197634c161bc03, type: 3}
--- !u!4 &6431007135157275268 stripped
Transform:
  m_CorrespondingSourceObject: {fileID: 400000, guid: 0c03522aba250d64c9197634c161bc03,
    type: 3}
  m_PrefabInstance: {fileID: 6431007135157145604}
  m_PrefabAsset: {fileID: 0}
--- !u!1001 &6431007135837893717
PrefabInstance:
  m_ObjectHideFlags: 0
  serializedVersion: 2
  m_Modification:
    m_TransformParent: {fileID: 6431007135157275268}
    m_Modifications:
    - target: {fileID: -927199367670048503, guid: d2bbb80c4bbd487498893decf0c800ad,
        type: 3}
      propertyPath: m_Name
      value: eye (2)
      objectReference: {fileID: 0}
    - target: {fileID: -927199367670048503, guid: d2bbb80c4bbd487498893decf0c800ad,
        type: 3}
      propertyPath: m_IsActive
      value: 1
      objectReference: {fileID: 0}
    - target: {fileID: -4216859302048453862, guid: d2bbb80c4bbd487498893decf0c800ad,
        type: 3}
      propertyPath: m_LocalPosition.x
      value: 4.42
      objectReference: {fileID: 0}
    - target: {fileID: -4216859302048453862, guid: d2bbb80c4bbd487498893decf0c800ad,
        type: 3}
      propertyPath: m_LocalPosition.y
      value: -7.53
      objectReference: {fileID: 0}
    - target: {fileID: -4216859302048453862, guid: d2bbb80c4bbd487498893decf0c800ad,
        type: 3}
      propertyPath: m_LocalPosition.z
      value: -2.65
      objectReference: {fileID: 0}
    - target: {fileID: -4216859302048453862, guid: d2bbb80c4bbd487498893decf0c800ad,
        type: 3}
      propertyPath: m_LocalRotation.x
      value: 0.7605056
      objectReference: {fileID: 0}
    - target: {fileID: -4216859302048453862, guid: d2bbb80c4bbd487498893decf0c800ad,
        type: 3}
      propertyPath: m_LocalRotation.y
      value: 0.1490951
      objectReference: {fileID: 0}
    - target: {fileID: -4216859302048453862, guid: d2bbb80c4bbd487498893decf0c800ad,
        type: 3}
      propertyPath: m_LocalRotation.z
      value: 0.18521103
      objectReference: {fileID: 0}
    - target: {fileID: -4216859302048453862, guid: d2bbb80c4bbd487498893decf0c800ad,
        type: 3}
      propertyPath: m_LocalRotation.w
      value: 0.60423404
      objectReference: {fileID: 0}
    - target: {fileID: -4216859302048453862, guid: d2bbb80c4bbd487498893decf0c800ad,
        type: 3}
      propertyPath: m_RootOrder
      value: 1
      objectReference: {fileID: 0}
    - target: {fileID: -4216859302048453862, guid: d2bbb80c4bbd487498893decf0c800ad,
        type: 3}
      propertyPath: m_LocalEulerAnglesHint.x
      value: -239.748
      objectReference: {fileID: 0}
    - target: {fileID: -4216859302048453862, guid: d2bbb80c4bbd487498893decf0c800ad,
        type: 3}
      propertyPath: m_LocalEulerAnglesHint.y
      value: -66.462006
      objectReference: {fileID: 0}
    - target: {fileID: -4216859302048453862, guid: d2bbb80c4bbd487498893decf0c800ad,
        type: 3}
      propertyPath: m_LocalEulerAnglesHint.z
      value: -63.429993
      objectReference: {fileID: 0}
    - target: {fileID: -4216859302048453862, guid: d2bbb80c4bbd487498893decf0c800ad,
        type: 3}
      propertyPath: m_LocalScale.x
      value: -0.1257744
      objectReference: {fileID: 0}
    - target: {fileID: -4216859302048453862, guid: d2bbb80c4bbd487498893decf0c800ad,
        type: 3}
      propertyPath: m_LocalScale.y
      value: 0.1257744
      objectReference: {fileID: 0}
    - target: {fileID: -4216859302048453862, guid: d2bbb80c4bbd487498893decf0c800ad,
        type: 3}
      propertyPath: m_LocalScale.z
      value: 0.09242599
      objectReference: {fileID: 0}
    - target: {fileID: -1504981713932161579, guid: d2bbb80c4bbd487498893decf0c800ad,
        type: 3}
      propertyPath: m_Materials.Array.data[0]
      value: 
      objectReference: {fileID: 2100000, guid: b5343ba5b26693c4ba0936aee86a5113, type: 2}
    m_RemovedComponents: []
  m_SourcePrefab: {fileID: 100100000, guid: d2bbb80c4bbd487498893decf0c800ad, type: 3}
--- !u!1001 &6431007136461026325
PrefabInstance:
  m_ObjectHideFlags: 0
  serializedVersion: 2
  m_Modification:
    m_TransformParent: {fileID: 6431007135157275268}
    m_Modifications:
    - target: {fileID: -927199367670048503, guid: d2bbb80c4bbd487498893decf0c800ad,
        type: 3}
      propertyPath: m_Name
      value: eye
      objectReference: {fileID: 0}
    - target: {fileID: -927199367670048503, guid: d2bbb80c4bbd487498893decf0c800ad,
        type: 3}
      propertyPath: m_IsActive
      value: 1
      objectReference: {fileID: 0}
    - target: {fileID: -4216859302048453862, guid: d2bbb80c4bbd487498893decf0c800ad,
        type: 3}
      propertyPath: m_LocalPosition.x
      value: -2.9
      objectReference: {fileID: 0}
    - target: {fileID: -4216859302048453862, guid: d2bbb80c4bbd487498893decf0c800ad,
        type: 3}
      propertyPath: m_LocalPosition.y
      value: -8.45
      objectReference: {fileID: 0}
    - target: {fileID: -4216859302048453862, guid: d2bbb80c4bbd487498893decf0c800ad,
        type: 3}
      propertyPath: m_LocalPosition.z
      value: -2.76
      objectReference: {fileID: 0}
    - target: {fileID: -4216859302048453862, guid: d2bbb80c4bbd487498893decf0c800ad,
        type: 3}
      propertyPath: m_LocalRotation.x
      value: 0.7808463
      objectReference: {fileID: 0}
    - target: {fileID: -4216859302048453862, guid: d2bbb80c4bbd487498893decf0c800ad,
        type: 3}
      propertyPath: m_LocalRotation.y
      value: -0.09659209
      objectReference: {fileID: 0}
    - target: {fileID: -4216859302048453862, guid: d2bbb80c4bbd487498893decf0c800ad,
        type: 3}
      propertyPath: m_LocalRotation.z
      value: -0.10201631
      objectReference: {fileID: 0}
    - target: {fileID: -4216859302048453862, guid: d2bbb80c4bbd487498893decf0c800ad,
        type: 3}
      propertyPath: m_LocalRotation.w
      value: 0.60872144
      objectReference: {fileID: 0}
    - target: {fileID: -4216859302048453862, guid: d2bbb80c4bbd487498893decf0c800ad,
        type: 3}
      propertyPath: m_RootOrder
      value: 0
      objectReference: {fileID: 0}
    - target: {fileID: -4216859302048453862, guid: d2bbb80c4bbd487498893decf0c800ad,
        type: 3}
      propertyPath: m_LocalEulerAnglesHint.x
      value: -248.58
      objectReference: {fileID: 0}
    - target: {fileID: -4216859302048453862, guid: d2bbb80c4bbd487498893decf0c800ad,
        type: 3}
      propertyPath: m_LocalEulerAnglesHint.y
      value: 49.309998
      objectReference: {fileID: 0}
    - target: {fileID: -4216859302048453862, guid: d2bbb80c4bbd487498893decf0c800ad,
        type: 3}
      propertyPath: m_LocalEulerAnglesHint.z
      value: 48.862
      objectReference: {fileID: 0}
    - target: {fileID: -4216859302048453862, guid: d2bbb80c4bbd487498893decf0c800ad,
        type: 3}
      propertyPath: m_LocalScale.x
      value: 0.1257744
      objectReference: {fileID: 0}
    - target: {fileID: -4216859302048453862, guid: d2bbb80c4bbd487498893decf0c800ad,
        type: 3}
      propertyPath: m_LocalScale.y
      value: 0.1257744
      objectReference: {fileID: 0}
    - target: {fileID: -4216859302048453862, guid: d2bbb80c4bbd487498893decf0c800ad,
        type: 3}
      propertyPath: m_LocalScale.z
      value: 0.09242599
      objectReference: {fileID: 0}
    - target: {fileID: -1504981713932161579, guid: d2bbb80c4bbd487498893decf0c800ad,
        type: 3}
      propertyPath: m_Materials.Array.data[0]
      value: 
      objectReference: {fileID: 2100000, guid: b5343ba5b26693c4ba0936aee86a5113, type: 2}
    m_RemovedComponents: []
  m_SourcePrefab: {fileID: 100100000, guid: d2bbb80c4bbd487498893decf0c800ad, type: 3}
